{
  "success": true,
  "data": {
    "items": [
      {
        "id": "7ff4f237-6655-4e44-bb86-59232f538cdc",
        "firstName": "Seun",
        "lastName": "olanitori",
        "email": "seun.olanitori@techstudioacademy.com",
        "gender": "male",
        "avatar": null,
        "phoneNumber": "07986178929",
        "dateOfBirth": "2000-06-19T00:00:00.000Z",
        "status": "active",
        "document": "https://nyc3.digitaloceanspaces.com/hr-techstudio-app/Techstudio Academy/employees/document/baseball-scoring-handbook-for-developers-pdf.pdf",
        "employmentDetails": {
          "startDate": "2023-06-17T00:00:00.000Z",
          "employmentType": "full time",
          "workMode": "onsite",
          "team": {
            "id": "5f242eb7-f633-41b2-a2e9-5dcb31015797",
            "name": "Design"
          },
          "role": {
            "id": "41f8559b-13cf-49f6-a5ea-0731fc2e0084",
            "name": "Design Manager",
            "permissions": [
              "company:read",
              "company:update",
              "company:manage",
              "employee:read",
              "employee:update",
              "employee:manage",
              "team:read",
              "team:update",
              "team:manage",
              "role:read",
              "role:update",
              "role:manage",
              "payroll:read",
              "payroll:update",
              "payroll:manage",
              "leave:read",
              "leave:update",
              "leave:manage",
              "attendance:read",
              "attendance:update",
              "attendance:manage",
              "resource:read",
              "resource:update",
              "resource:manage"
            ]
          }
        },
        "payProfile": {
          "id": "4a953cc5-4def-47d9-84cb-a433ba96b2c6",
          "grossSalary": 885000,
          "bankName": "Uba",
          "accountName": "engineering manager",
          "accountNumber": "2079753003"
        },
        "createdAt": "2025-08-14T06:19:23.059Z",
        "updatedAt": "2025-08-14T06:19:23.059Z"
      },
      {
        "id": "4a5c3729-af68-482f-892c-d3bbd08f8156",
        "firstName": "engineering ",
        "lastName": "manager",
        "email": "engineering.manager@techstudioacademy.com",
        "gender": "male",
        "avatar": null,
        "phoneNumber": "07986178925",
        "dateOfBirth": "2000-06-19T00:00:00.000Z",
        "status": "active",
        "document": "https://nyc3.digitaloceanspaces.com/hr-techstudio-app/Techstudio Academy/employees/document/baseball-scoring-handbook-for-developers-pdf.pdf",
        "employmentDetails": {
          "startDate": "2023-06-17T00:00:00.000Z",
          "employmentType": "full time",
          "workMode": "onsite",
          "team": {
            "id": "281f3e0b-f85c-4b1d-af84-d4080ccf755c",
            "name": "Marketing"
          },
          "role": {
            "id": "20fcec0f-2c42-41fe-a219-346b6d4e0114",
            "name": "Marketing Manager",
            "permissions": [
              "company:read",
              "company:update",
              "company:manage",
              "employee:read",
              "employee:update",
              "employee:manage",
              "team:read",
              "team:update",
              "team:manage",
              "role:read",
              "role:update",
              "role:manage",
              "payroll:read",
              "payroll:update",
              "payroll:manage",
              "leave:read",
              "leave:update",
              "leave:manage",
              "attendance:read",
              "attendance:update",
              "attendance:manage",
              "resource:read",
              "resource:update",
              "resource:manage"
            ]
          }
        },
        "payProfile": {
          "id": "d6000b3f-ba97-4003-b6fc-9fc954667da8",
          "grossSalary": 885000,
          "bankName": "Uba",
          "accountName": "engineering manager",
          "accountNumber": "2079753003"
        },
        "createdAt": "2025-08-14T06:16:01.452Z",
        "updatedAt": "2025-08-14T06:16:01.452Z"
      },
      {
        "id": "8f19041b-ee81-44d2-835a-5324ad4f57bd",
        "firstName": "Ericka",
        "lastName": "Schoen",
        "email": "ericka.schoen@techstudioacademy.com",
        "gender": "male",
        "avatar": null,
        "phoneNumber": "08558660844",
        "dateOfBirth": "1990-06-20T00:00:00.000Z",
        "status": "active",
        "document": null,
        "employmentDetails": {
          "startDate": "2025-08-14T00:00:00.000Z",
          "employmentType": null,
          "workMode": null,
          "team": {
            "id": "8db5a133-f2b7-430b-b2f6-a019e68042e4",
            "name": "Backend"
          },
          "role": {
            "id": "972587e6-f57f-45da-90bb-a834c8737f5d",
            "name": "Backend Staff",
            "permissions": [
              "company:read",
              "employee:read",
              "team:read",
              "role:read",
              "payroll:read",
              "leave:read",
              "attendance:read",
              "resource:read"
            ]
          }
        },
        "payProfile": {
          "id": "c9297600-0088-40be-8a4b-2a00f65379f5",
          "grossSalary": 409676.8,
          "bankName": "Jacobson - Feil",
          "accountName": "Ericka Schoen",
          "accountNumber": "1560093510"
        },
        "createdAt": "2025-08-14T05:24:07.302Z",
        "updatedAt": "2025-08-14T05:24:07.302Z"
      },
      {
        "id": "7bce608b-29bd-4041-b3db-406e70e358ad",
        "firstName": "Ian",
        "lastName": "Schmidt",
        "email": "ian.schmidt@techstudioacademy.com",
        "gender": "male",
        "avatar": null,
        "phoneNumber": "08418883586",
        "dateOfBirth": "1977-02-01T00:00:00.000Z",
        "status": "active",
        "document": null,
        "employmentDetails": {
          "startDate": "2025-08-14T00:00:00.000Z",
          "employmentType": null,
          "workMode": null,
          "team": {
            "id": "8db5a133-f2b7-430b-b2f6-a019e68042e4",
            "name": "Backend"
          },
          "role": {
            "id": "972587e6-f57f-45da-90bb-a834c8737f5d",
            "name": "Backend Staff",
            "permissions": [
              "company:read",
              "employee:read",
              "team:read",
              "role:read",
              "payroll:read",
              "leave:read",
              "attendance:read",
              "resource:read"
            ]
          }
        },
        "payProfile": {
          "id": "192f5d1b-ba75-472d-bbc8-8747980fb7f3",
          "grossSalary": 416675,
          "bankName": "Daniel, Considine and Ruecker",
          "accountName": "Ian Schmidt",
          "accountNumber": "1813064391"
        },
        "createdAt": "2025-08-14T05:24:07.243Z",
        "updatedAt": "2025-08-14T05:24:07.243Z"
      },
      {
        "id": "0f7d0ed4-0f18-43dd-a9e3-be7c21c3329c",
        "firstName": "Damian",
        "lastName": "Kuhic",
        "email": "damian.kuhic@techstudioacademy.com",
        "gender": "female",
        "avatar": null,
        "phoneNumber": "08462027256",
        "dateOfBirth": "1976-05-19T00:00:00.000Z",
        "status": "active",
        "document": null,
        "employmentDetails": {
          "startDate": "2025-08-14T00:00:00.000Z",
          "employmentType": null,
          "workMode": null,
          "team": {
            "id": "8db5a133-f2b7-430b-b2f6-a019e68042e4",
            "name": "Backend"
          },
          "role": {
            "id": "972587e6-f57f-45da-90bb-a834c8737f5d",
            "name": "Backend Staff",
            "permissions": [
              "company:read",
              "employee:read",
              "team:read",
              "role:read",
              "payroll:read",
              "leave:read",
              "attendance:read",
              "resource:read"
            ]
          }
        },
        "payProfile": {
          "id": "0977923f-f717-49e3-b628-7845501e9531",
          "grossSalary": 321294,
          "bankName": "O'Connell Inc",
          "accountName": "Damian Kuhic",
          "accountNumber": "6948978670"
        },
        "createdAt": "2025-08-14T05:24:07.184Z",
        "updatedAt": "2025-08-14T05:24:07.184Z"
      },
      {
        "id": "af73db9c-a7fc-4eed-b81a-64db11cca6b0",
        "firstName": "Colleen",
        "lastName": "Keeling",
        "email": "colleen.keeling@techstudioacademy.com",
        "gender": "male",
        "avatar": null,
        "phoneNumber": "08629967753",
        "dateOfBirth": "1983-11-19T00:00:00.000Z",
        "status": "active",
        "document": null,
        "employmentDetails": {
          "startDate": "2025-08-14T00:00:00.000Z",
          "employmentType": null,
          "workMode": null,
          "team": {
            "id": "8db5a133-f2b7-430b-b2f6-a019e68042e4",
            "name": "Backend"
          },
          "role": {
            "id": "972587e6-f57f-45da-90bb-a834c8737f5d",
            "name": "Backend Staff",
            "permissions": [
              "company:read",
              "employee:read",
              "team:read",
              "role:read",
              "payroll:read",
              "leave:read",
              "attendance:read",
              "resource:read"
            ]
          }
        },
        "payProfile": {
          "id": "91343f5b-d1cd-47e1-a4c6-d5c469d51262",
          "grossSalary": 476996.8,
          "bankName": "Boyle - Cruickshank",
          "accountName": "Colleen Keeling",
          "accountNumber": "9484074290"
        },
        "createdAt": "2025-08-14T05:24:07.126Z",
        "updatedAt": "2025-08-14T05:24:07.126Z"
      },
      {
        "id": "64aae066-4d83-4edf-9556-4df5b08522d2",
        "firstName": "Shanon",
        "lastName": "Roob",
        "email": "shanon.roob@techstudioacademy.com",
        "gender": "female",
        "avatar": null,
        "phoneNumber": "08438131241",
        "dateOfBirth": "1996-01-12T00:00:00.000Z",
        "status": "active",
        "document": null,
        "employmentDetails": {
          "startDate": "2025-08-14T00:00:00.000Z",
          "employmentType": null,
          "workMode": null,
          "team": {
            "id": "281f3e0b-f85c-4b1d-af84-d4080ccf755c",
            "name": "Marketing"
          },
          "role": {
            "id": "9d3bf9fa-553b-49e9-97d1-dc7b2c75c167",
            "name": "Marketing Staff",
            "permissions": [
              "company:read",
              "employee:read",
              "team:read",
              "role:read",
              "payroll:read",
              "leave:read",
              "attendance:read",
              "resource:read"
            ]
          }
        },
        "payProfile": {
          "id": "ea628db7-3925-4055-9699-500ad830faa4",
          "grossSalary": 132207.3,
          "bankName": "Pfeffer Group",
          "accountName": "Shanon Roob",
          "accountNumber": "3346676463"
        },
        "createdAt": "2025-08-14T05:24:07.065Z",
        "updatedAt": "2025-08-14T05:24:07.065Z"
      },
      {
        "id": "62395891-1ab0-4951-bc24-05ff56f25219",
        "firstName": "Tracy",
        "lastName": "Leffler",
        "email": "tracy.leffler@techstudioacademy.com",
        "gender": "male",
        "avatar": null,
        "phoneNumber": "08022479109",
        "dateOfBirth": "1978-01-01T00:00:00.000Z",
        "status": "active",
        "document": null,
        "employmentDetails": {
          "startDate": "2025-08-14T00:00:00.000Z",
          "employmentType": null,
          "workMode": null,
          "team": {
            "id": "281f3e0b-f85c-4b1d-af84-d4080ccf755c",
            "name": "Marketing"
          },
          "role": {
            "id": "9d3bf9fa-553b-49e9-97d1-dc7b2c75c167",
            "name": "Marketing Staff",
            "permissions": [
              "company:read",
              "employee:read",
              "team:read",
              "role:read",
              "payroll:read",
              "leave:read",
              "attendance:read",
              "resource:read"
            ]
          }
        },
        "payProfile": {
          "id": "dce5fe27-dd6e-4bcb-98c9-2939a063fd2f",
          "grossSalary": 239208.7,
          "bankName": "Davis and Sons",
          "accountName": "Tracy Leffler",
          "accountNumber": "7566787058"
        },
        "createdAt": "2025-08-14T05:24:07.005Z",
        "updatedAt": "2025-08-14T05:24:07.005Z"
      },
      {
        "id": "40e3fc7b-4f96-4599-9b9b-850d15c41a97",
        "firstName": "Arnold",
        "lastName": "Nitzsche",
        "email": "arnold.nitzsche@techstudioacademy.com",
        "gender": "male",
        "avatar": null,
        "phoneNumber": "08234877690",
        "dateOfBirth": "1993-10-01T00:00:00.000Z",
        "status": "active",
        "document": null,
        "employmentDetails": {
          "startDate": "2025-08-14T00:00:00.000Z",
          "employmentType": null,
          "workMode": null,
          "team": {
            "id": "281f3e0b-f85c-4b1d-af84-d4080ccf755c",
            "name": "Marketing"
          },
          "role": {
            "id": "9d3bf9fa-553b-49e9-97d1-dc7b2c75c167",
            "name": "Marketing Staff",
            "permissions": [
              "company:read",
              "employee:read",
              "team:read",
              "role:read",
              "payroll:read",
              "leave:read",
              "attendance:read",
              "resource:read"
            ]
          }
        },
        "payProfile": {
          "id": "17797710-cc14-440d-bc9c-25b3d5c3d1a3",
          "grossSalary": 404034.9,
          "bankName": "McClure Group",
          "accountName": "Arnold Nitzsche",
          "accountNumber": "9602731711"
        },
        "createdAt": "2025-08-14T05:24:06.947Z",
        "updatedAt": "2025-08-14T05:24:06.947Z"
      },
      {
        "id": "1e3c500e-df07-4a16-badb-d48bf5f98c3f",
        "firstName": "Payton",
        "lastName": "Carter",
        "email": "payton.carter@techstudioacademy.com",
        "gender": "female",
        "avatar": null,
        "phoneNumber": "08557412908",
        "dateOfBirth": "1984-02-03T00:00:00.000Z",
        "status": "active",
        "document": null,
        "employmentDetails": {
          "startDate": "2025-08-14T00:00:00.000Z",
          "employmentType": null,
          "workMode": null,
          "team": {
            "id": "281f3e0b-f85c-4b1d-af84-d4080ccf755c",
            "name": "Marketing"
          },
          "role": {
            "id": "20fcec0f-2c42-41fe-a219-346b6d4e0114",
            "name": "Marketing Manager",
            "permissions": [
              "company:read",
              "company:update",
              "company:manage",
              "employee:read",
              "employee:update",
              "employee:manage",
              "team:read",
              "team:update",
              "team:manage",
              "role:read",
              "role:update",
              "role:manage",
              "payroll:read",
              "payroll:update",
              "payroll:manage",
              "leave:read",
              "leave:update",
              "leave:manage",
              "attendance:read",
              "attendance:update",
              "attendance:manage",
              "resource:read",
              "resource:update",
              "resource:manage"
            ]
          }
        },
        "payProfile": {
          "id": "598c709b-aa73-4909-992c-ac4f64ca018f",
          "grossSalary": 332617.4,
          "bankName": "Satterfield, Connelly and Abbott",
          "accountName": "Payton Carter",
          "accountNumber": "3009325887"
        },
        "createdAt": "2025-08-14T05:24:06.886Z",
        "updatedAt": "2025-08-14T05:24:06.886Z"
      }
    ],
    "metadata": {
      "total": 19,
      "page": "1",
      "limit": "10",
      "totalPages": 2,
      "hasNextPage": true,
      "hasPreviousPage": false
    }
  }
}
